-- Merging decision tree log ---
manifest
ADDED from C:\Users\1633918\Desktop\lab03-skeleton-code\app\src\main\AndroidManifest.xml:2:1-31:12
	package
		ADDED from C:\Users\1633918\Desktop\lab03-skeleton-code\app\src\main\AndroidManifest.xml:3:5-38
		INJECTED from C:\Users\1633918\Desktop\lab03-skeleton-code\app\src\main\AndroidManifest.xml
		INJECTED from C:\Users\1633918\Desktop\lab03-skeleton-code\app\src\main\AndroidManifest.xml
	android:versionName
		ADDED from C:\Users\1633918\Desktop\lab03-skeleton-code\app\src\main\AndroidManifest.xml:5:5-30
		INJECTED from C:\Users\1633918\Desktop\lab03-skeleton-code\app\src\main\AndroidManifest.xml
		INJECTED from C:\Users\1633918\Desktop\lab03-skeleton-code\app\src\main\AndroidManifest.xml
	android:versionCode
		ADDED from C:\Users\1633918\Desktop\lab03-skeleton-code\app\src\main\AndroidManifest.xml:4:5-28
		INJECTED from C:\Users\1633918\Desktop\lab03-skeleton-code\app\src\main\AndroidManifest.xml
		INJECTED from C:\Users\1633918\Desktop\lab03-skeleton-code\app\src\main\AndroidManifest.xml
	xmlns:android
		ADDED from C:\Users\1633918\Desktop\lab03-skeleton-code\app\src\main\AndroidManifest.xml:2:11-69
uses-sdk
ADDED from C:\Users\1633918\Desktop\lab03-skeleton-code\app\src\main\AndroidManifest.xml:7:5-9:41
MERGED from [com.android.support:support-v4:22.2.1] C:\dev\.android\.android\build-cache\a39c134d0bcfa9a42eaf6115f46a14b989e52e2d\output\AndroidManifest.xml:20:5-43
	android:targetSdkVersion
		ADDED from C:\Users\1633918\Desktop\lab03-skeleton-code\app\src\main\AndroidManifest.xml:9:9-38
		INJECTED from C:\Users\1633918\Desktop\lab03-skeleton-code\app\src\main\AndroidManifest.xml
		INJECTED from C:\Users\1633918\Desktop\lab03-skeleton-code\app\src\main\AndroidManifest.xml
	android:minSdkVersion
		ADDED from C:\Users\1633918\Desktop\lab03-skeleton-code\app\src\main\AndroidManifest.xml:8:9-34
		INJECTED from C:\Users\1633918\Desktop\lab03-skeleton-code\app\src\main\AndroidManifest.xml
		INJECTED from C:\Users\1633918\Desktop\lab03-skeleton-code\app\src\main\AndroidManifest.xml
application
ADDED from C:\Users\1633918\Desktop\lab03-skeleton-code\app\src\main\AndroidManifest.xml:11:5-29:19
MERGED from [com.android.support:support-v4:22.2.1] C:\dev\.android\.android\build-cache\a39c134d0bcfa9a42eaf6115f46a14b989e52e2d\output\AndroidManifest.xml:22:5-20
	android:label
		ADDED from C:\Users\1633918\Desktop\lab03-skeleton-code\app\src\main\AndroidManifest.xml:14:9-41
	android:allowBackup
		ADDED from C:\Users\1633918\Desktop\lab03-skeleton-code\app\src\main\AndroidManifest.xml:12:9-35
	android:icon
		ADDED from C:\Users\1633918\Desktop\lab03-skeleton-code\app\src\main\AndroidManifest.xml:13:9-45
	android:theme
		ADDED from C:\Users\1633918\Desktop\lab03-skeleton-code\app\src\main\AndroidManifest.xml:15:9-40
activity#course.labs.activitylab.ActivityOne
ADDED from C:\Users\1633918\Desktop\lab03-skeleton-code\app\src\main\AndroidManifest.xml:16:9-24:20
	android:label
		ADDED from C:\Users\1633918\Desktop\lab03-skeleton-code\app\src\main\AndroidManifest.xml:18:13-45
	android:name
		ADDED from C:\Users\1633918\Desktop\lab03-skeleton-code\app\src\main\AndroidManifest.xml:17:13-63
intent-filter#android.intent.action.MAIN+android.intent.category.LAUNCHER
ADDED from C:\Users\1633918\Desktop\lab03-skeleton-code\app\src\main\AndroidManifest.xml:19:13-23:29
action#android.intent.action.MAIN
ADDED from C:\Users\1633918\Desktop\lab03-skeleton-code\app\src\main\AndroidManifest.xml:20:17-69
	android:name
		ADDED from C:\Users\1633918\Desktop\lab03-skeleton-code\app\src\main\AndroidManifest.xml:20:25-66
category#android.intent.category.LAUNCHER
ADDED from C:\Users\1633918\Desktop\lab03-skeleton-code\app\src\main\AndroidManifest.xml:22:17-77
	android:name
		ADDED from C:\Users\1633918\Desktop\lab03-skeleton-code\app\src\main\AndroidManifest.xml:22:27-74
activity#course.labs.activitylab.ActivityTwo
ADDED from C:\Users\1633918\Desktop\lab03-skeleton-code\app\src\main\AndroidManifest.xml:25:9-28:20
	android:label
		ADDED from C:\Users\1633918\Desktop\lab03-skeleton-code\app\src\main\AndroidManifest.xml:27:13-64
	android:name
		ADDED from C:\Users\1633918\Desktop\lab03-skeleton-code\app\src\main\AndroidManifest.xml:26:13-63
